
{
	"/home/enspirea/CADScannerWeb/cpp/StepReader/Linux/bin/StepReader/as1-md-214(.stp).stl" : 
	{
		"alignedBox" : 
		{
			"axis0" : 
			{
				"a1" : 1.0,
				"a2" : 0.0,
				"a3" : 0.0
			},
			"axis1" : 
			{
				"a1" : 0.0,
				"a2" : 1.0,
				"a3" : 0.0
			},
			"axis2" : 
			{
				"a1" : 0.0,
				"a2" : 0.0,
				"a3" : 1.0
			},
			"boxkind" : "alignedBox",
			"center" : 
			{
				"x" : 0.0,
				"y" : 0.0,
				"z" : 36.50
			},
			"extent0" : 100.0,
			"extent1" : 75.0,
			"extent2" : 43.50
		},
		"orientedBox" : 
		{
			"axis0" : 
			{
				"a1" : -6.644413952017203e-05,
				"a2" : 1.0,
				"a3" : 0.0003491938114166260
			},
			"axis1" : 
			{
				"a1" : -0.0001854760921560228,
				"a2" : -0.0003491938114166260,
				"a3" : 1.0
			},
			"axis2" : 
			{
				"a1" : 1.0,
				"a2" : 6.637937622144818e-05,
				"a3" : 0.0001854993024608120
			},
			"boxkind" : "orientedBox",
			"center" : 
			{
				"x" : 0.004359392449259758,
				"y" : -0.009256019257009029,
				"z" : 36.50941467285156
			},
			"extent0" : 75.00947570800781,
			"extent1" : 43.52380752563477,
			"extent2" : 100.0023498535156
		},
		"originalBox" : 
		{
			"axis0" : 
			{
				"a1" : 1.0,
				"a2" : 0.0,
				"a3" : 0.0
			},
			"axis1" : 
			{
				"a1" : 0.0,
				"a2" : 1.0,
				"a3" : 0.0
			},
			"axis2" : 
			{
				"a1" : 0.0,
				"a2" : 0.0,
				"a3" : 1.0
			},
			"boxkind" : "originalBox",
			"center" : 
			{
				"x" : 0.0,
				"y" : 0.0,
				"z" : 36.50
			},
			"extent0" : 100.0,
			"extent1" : 75.0,
			"extent2" : 43.50
		}
	}
}
