
{
	"/home/enspirea/CADScannerWeb/cpp/StepReader/Linux/bin/StepReader/boxy_with_linearsize(.stp).stl" : 
	{
		"alignedBox" : 
		{
			"axis0" : 
			{
				"a1" : 1.0,
				"a2" : 0.0,
				"a3" : 0.0
			},
			"axis1" : 
			{
				"a1" : 0.0,
				"a2" : 1.0,
				"a3" : 0.0
			},
			"axis2" : 
			{
				"a1" : 0.0,
				"a2" : 0.0,
				"a3" : 1.0
			},
			"boxkind" : "alignedBox",
			"center" : 
			{
				"x" : 0.0,
				"y" : 0.0,
				"z" : 40.0
			},
			"extent0" : 40.0,
			"extent1" : 40.0,
			"extent2" : 40.0
		},
		"orientedBox" : 
		{
			"axis0" : 
			{
				"a1" : -0.005619460251182318,
				"a2" : -0.9999842643737793,
				"a3" : -0.0004543364048004150
			},
			"axis1" : 
			{
				"a1" : 0.9999192953109741,
				"a2" : -0.005624274257570505,
				"a3" : 0.01139617152512074
			},
			"axis2" : 
			{
				"a1" : -0.01139854453504086,
				"a2" : -0.0003903210163116455,
				"a3" : 0.9999350309371948
			},
			"boxkind" : "orientedBox",
			"center" : 
			{
				"x" : -1.072417944669724e-06,
				"y" : 1.430511474609375e-06,
				"z" : 40.0
			},
			"extent0" : 40.24232482910156,
			"extent1" : 40.67758941650391,
			"extent2" : 40.46895599365234
		},
		"originalBox" : 
		{
			"axis0" : 
			{
				"a1" : 1.0,
				"a2" : 0.0,
				"a3" : 0.0
			},
			"axis1" : 
			{
				"a1" : 0.0,
				"a2" : 1.0,
				"a3" : 0.0
			},
			"axis2" : 
			{
				"a1" : 0.0,
				"a2" : 0.0,
				"a3" : 1.0
			},
			"boxkind" : "originalBox",
			"center" : 
			{
				"x" : 0.0,
				"y" : 0.0,
				"z" : 40.0
			},
			"extent0" : 40.0,
			"extent1" : 40.0,
			"extent2" : 40.0
		}
	}
}
